\relax 
\@writefile{toc}{\contentsline {section}{\numberline {1}実験の目的}{2}\protected@file@percent }
\@writefile{toc}{\contentsline {subsection}{\numberline {1.1}}{2}\protected@file@percent }
\@writefile{toc}{\contentsline {subsection}{\numberline {1.2}}{2}\protected@file@percent }
\@writefile{toc}{\contentsline {section}{\numberline {2}原理と理論}{2}\protected@file@percent }
\@writefile{toc}{\contentsline {subsection}{\numberline {2.1}拡散反射光}{2}\protected@file@percent }
\@writefile{toc}{\contentsline {subsection}{\numberline {2.2}環境光}{3}\protected@file@percent }
\@writefile{toc}{\contentsline {subsection}{\numberline {2.3}鏡面反射光}{3}\protected@file@percent }
\@writefile{toc}{\contentsline {subsection}{\numberline {2.4}複数光源・複数物体への拡張}{3}\protected@file@percent }
\@writefile{toc}{\contentsline {section}{\numberline {3}方法}{3}\protected@file@percent }
\@writefile{toc}{\contentsline {subsection}{\numberline {3.1}ファイルの説明}{3}\protected@file@percent }
\@writefile{toc}{\contentsline {subsection}{\numberline {3.2}実行方法}{4}\protected@file@percent }
\@writefile{toc}{\contentsline {subsubsection}{\numberline {3.2.1}}{4}\protected@file@percent }
\@writefile{toc}{\contentsline {subsubsection}{\numberline {3.2.2}}{4}\protected@file@percent }
\@writefile{toc}{\contentsline {subsubsection}{\numberline {3.2.3}}{4}\protected@file@percent }
\@writefile{toc}{\contentsline {subsubsection}{\numberline {3.2.4}}{4}\protected@file@percent }
\@writefile{toc}{\contentsline {section}{\numberline {4}演習}{5}\protected@file@percent }
\@writefile{toc}{\contentsline {subsection}{\numberline {4.1}演習1}{5}\protected@file@percent }
\@writefile{toc}{\contentsline {subsubsection}{\numberline {4.1.1}演習1概要}{5}\protected@file@percent }
\@writefile{toc}{\contentsline {subsubsection}{\numberline {4.1.2}演習1プログラム(rt01.h)}{5}\protected@file@percent }
\@writefile{lol}{\contentsline {lstlisting}{\numberline {1}rt01.h}{5}\protected@file@percent }
\@writefile{toc}{\contentsline {subsubsection}{\numberline {4.1.3}演習1プログラム(ex01.cc)}{6}\protected@file@percent }
\@writefile{lol}{\contentsline {lstlisting}{\numberline {2}ex01.cc}{6}\protected@file@percent }
\@writefile{toc}{\contentsline {subsubsection}{\numberline {4.1.4}演習1データ(data01)}{8}\protected@file@percent }
\@writefile{lol}{\contentsline {lstlisting}{\numberline {3}data01}{8}\protected@file@percent }
\@writefile{toc}{\contentsline {subsubsection}{\numberline {4.1.5}演習1出力画像(image01.pgm)}{8}\protected@file@percent }
\@writefile{lof}{\contentsline {figure}{\numberline {1}{\ignorespaces image01.pgm}}{8}\protected@file@percent }
\newlabel{fig:3_4}{{1}{8}}
\@writefile{toc}{\contentsline {subsection}{\numberline {4.2}演習2}{9}\protected@file@percent }
\@writefile{toc}{\contentsline {subsubsection}{\numberline {4.2.1}演習2概要}{9}\protected@file@percent }
\@writefile{toc}{\contentsline {subsubsection}{\numberline {4.2.2}演習2プログラム(rt02.h)}{9}\protected@file@percent }
\@writefile{lol}{\contentsline {lstlisting}{\numberline {4}rt02.h}{9}\protected@file@percent }
\@writefile{toc}{\contentsline {subsubsection}{\numberline {4.2.3}演習2プログラム(ex02.cc)}{11}\protected@file@percent }
\@writefile{lol}{\contentsline {lstlisting}{\numberline {5}ex02.cc}{11}\protected@file@percent }
\@writefile{toc}{\contentsline {subsubsection}{\numberline {4.2.4}演習2データ(data02)}{12}\protected@file@percent }
\@writefile{lol}{\contentsline {lstlisting}{\numberline {6}data02}{12}\protected@file@percent }
\@writefile{toc}{\contentsline {subsubsection}{\numberline {4.2.5}演習2出力画像(image02.pgm)}{13}\protected@file@percent }
\@writefile{lof}{\contentsline {figure}{\numberline {2}{\ignorespaces image02.pgm}}{13}\protected@file@percent }
\newlabel{fig:3_4}{{2}{13}}
\@writefile{toc}{\contentsline {subsection}{\numberline {4.3}演習3}{14}\protected@file@percent }
\@writefile{toc}{\contentsline {subsubsection}{\numberline {4.3.1}演習3概要}{14}\protected@file@percent }
\@writefile{toc}{\contentsline {subsubsection}{\numberline {4.3.2}演習3プログラム(rt03.h)}{14}\protected@file@percent }
\@writefile{lol}{\contentsline {lstlisting}{\numberline {7}rt03.h}{14}\protected@file@percent }
\@writefile{toc}{\contentsline {subsubsection}{\numberline {4.3.3}演習3プログラム(ex03.cc)}{16}\protected@file@percent }
\@writefile{lol}{\contentsline {lstlisting}{\numberline {8}ex03.cc}{16}\protected@file@percent }
\@writefile{toc}{\contentsline {subsubsection}{\numberline {4.3.4}演習3データ(data03)}{18}\protected@file@percent }
\@writefile{lol}{\contentsline {lstlisting}{\numberline {9}data03}{18}\protected@file@percent }
\@writefile{toc}{\contentsline {subsubsection}{\numberline {4.3.5}演習3出力画像(image03.pgm)}{18}\protected@file@percent }
\@writefile{lof}{\contentsline {figure}{\numberline {3}{\ignorespaces image03.pgm}}{18}\protected@file@percent }
\newlabel{fig:3_4}{{3}{18}}
\@writefile{toc}{\contentsline {subsection}{\numberline {4.4}演習4}{19}\protected@file@percent }
\@writefile{toc}{\contentsline {subsubsection}{\numberline {4.4.1}演習4概要}{19}\protected@file@percent }
\@writefile{toc}{\contentsline {subsubsection}{\numberline {4.4.2}演習4プログラム(rt04.h)}{19}\protected@file@percent }
\@writefile{lol}{\contentsline {lstlisting}{\numberline {10}rt04.h}{19}\protected@file@percent }
\@writefile{toc}{\contentsline {subsubsection}{\numberline {4.4.3}演習4プログラム(ex04.cc)}{21}\protected@file@percent }
\@writefile{lol}{\contentsline {lstlisting}{\numberline {11}ex04.cc}{21}\protected@file@percent }
\@writefile{toc}{\contentsline {subsubsection}{\numberline {4.4.4}演習4データ(data04)}{23}\protected@file@percent }
\@writefile{lol}{\contentsline {lstlisting}{\numberline {12}data04}{23}\protected@file@percent }
\@writefile{toc}{\contentsline {subsubsection}{\numberline {4.4.5}演習4出力画像(image04.pgm)}{24}\protected@file@percent }
\@writefile{lof}{\contentsline {figure}{\numberline {4}{\ignorespaces image04.pgm}}{24}\protected@file@percent }
\newlabel{fig:3_4}{{4}{24}}
\@writefile{toc}{\contentsline {section}{\numberline {5}工夫した点，苦心した点}{24}\protected@file@percent }
\@writefile{toc}{\contentsline {subsection}{\numberline {5.1}工夫した点}{24}\protected@file@percent }
\@writefile{toc}{\contentsline {subsection}{\numberline {5.2}苦心した点}{24}\protected@file@percent }
\@writefile{toc}{\contentsline {section}{\numberline {6}考察}{25}\protected@file@percent }
\@writefile{toc}{\contentsline {subsection}{\numberline {6.1}演習1考察}{25}\protected@file@percent }
\@writefile{toc}{\contentsline {subsection}{\numberline {6.2}演習2考察}{25}\protected@file@percent }
\@writefile{toc}{\contentsline {subsection}{\numberline {6.3}演習3考察}{25}\protected@file@percent }
\@writefile{toc}{\contentsline {subsection}{\numberline {6.4}演習4考察}{25}\protected@file@percent }
